^C:\USERS\ROHITHKARTHIKEYAN\SYNCPLICITY FOLDERS\BIOROBOTICS (SEOK CHANG RYU)\ROHITH KARTHIKEYAN\CODE\MAZE GENERATOR TRIALS\MAZEGENV1\MAZEGENV1\STDAFX.CPP
C:\USERS\ROHITHKARTHIKEYAN\SYNCPLICITY FOLDERS\BIOROBOTICS (SEOK CHANG RYU)\ROHITH KARTHIKEYAN\CODE\MAZE GENERATOR TRIALS\MAZEGENV1\MAZEGENV1\DEBUG\MAZEGENV1.PCH
C:\USERS\ROHITHKARTHIKEYAN\SYNCPLICITY FOLDERS\BIOROBOTICS (SEOK CHANG RYU)\ROHITH KARTHIKEYAN\CODE\MAZE GENERATOR TRIALS\MAZEGENV1\MAZEGENV1\DEBUG\VC140.PDB
C:\USERS\ROHITHKARTHIKEYAN\SYNCPLICITY FOLDERS\BIOROBOTICS (SEOK CHANG RYU)\ROHITH KARTHIKEYAN\CODE\MAZE GENERATOR TRIALS\MAZEGENV1\MAZEGENV1\DEBUG\VC140.IDB
C:\USERS\ROHITHKARTHIKEYAN\SYNCPLICITY FOLDERS\BIOROBOTICS (SEOK CHANG RYU)\ROHITH KARTHIKEYAN\CODE\MAZE GENERATOR TRIALS\MAZEGENV1\MAZEGENV1\DEBUG\STDAFX.OBJ
^C:\USERS\ROHITHKARTHIKEYAN\SYNCPLICITY FOLDERS\BIOROBOTICS (SEOK CHANG RYU)\ROHITH KARTHIKEYAN\CODE\MAZE GENERATOR TRIALS\MAZEGENV1\MAZEGENV1\MAZEGENV1.CPP
C:\USERS\ROHITHKARTHIKEYAN\SYNCPLICITY FOLDERS\BIOROBOTICS (SEOK CHANG RYU)\ROHITH KARTHIKEYAN\CODE\MAZE GENERATOR TRIALS\MAZEGENV1\MAZEGENV1\DEBUG\VC140.PDB
C:\USERS\ROHITHKARTHIKEYAN\SYNCPLICITY FOLDERS\BIOROBOTICS (SEOK CHANG RYU)\ROHITH KARTHIKEYAN\CODE\MAZE GENERATOR TRIALS\MAZEGENV1\MAZEGENV1\DEBUG\VC140.IDB
C:\USERS\ROHITHKARTHIKEYAN\SYNCPLICITY FOLDERS\BIOROBOTICS (SEOK CHANG RYU)\ROHITH KARTHIKEYAN\CODE\MAZE GENERATOR TRIALS\MAZEGENV1\MAZEGENV1\DEBUG\MAZEGENV1.OBJ
^C:\USERS\ROHITH\SYNCPLICITY FOLDERS\BIOROBOTICS (SEOK CHANG RYU)\ROHITH KARTHIKEYAN\CODE\MAZE GENERATOR TRIALS\MAZEGENV1\MAZEGENV1\STDAFX.CPP
C:\USERS\ROHITH\SYNCPLICITY FOLDERS\BIOROBOTICS (SEOK CHANG RYU)\ROHITH KARTHIKEYAN\CODE\MAZE GENERATOR TRIALS\MAZEGENV1\MAZEGENV1\DEBUG\MAZEGENV1.PCH
C:\USERS\ROHITH\SYNCPLICITY FOLDERS\BIOROBOTICS (SEOK CHANG RYU)\ROHITH KARTHIKEYAN\CODE\MAZE GENERATOR TRIALS\MAZEGENV1\MAZEGENV1\DEBUG\VC140.PDB
C:\USERS\ROHITH\SYNCPLICITY FOLDERS\BIOROBOTICS (SEOK CHANG RYU)\ROHITH KARTHIKEYAN\CODE\MAZE GENERATOR TRIALS\MAZEGENV1\MAZEGENV1\DEBUG\VC140.IDB
C:\USERS\ROHITH\SYNCPLICITY FOLDERS\BIOROBOTICS (SEOK CHANG RYU)\ROHITH KARTHIKEYAN\CODE\MAZE GENERATOR TRIALS\MAZEGENV1\MAZEGENV1\DEBUG\STDAFX.OBJ
^C:\USERS\ROHITH\SYNCPLICITY FOLDERS\BIOROBOTICS (SEOK CHANG RYU)\ROHITH KARTHIKEYAN\CODE\MAZE GENERATOR TRIALS\MAZEGENV1\MAZEGENV1\MAZEGENV1.CPP
C:\USERS\ROHITH\SYNCPLICITY FOLDERS\BIOROBOTICS (SEOK CHANG RYU)\ROHITH KARTHIKEYAN\CODE\MAZE GENERATOR TRIALS\MAZEGENV1\MAZEGENV1\DEBUG\VC140.PDB
C:\USERS\ROHITH\SYNCPLICITY FOLDERS\BIOROBOTICS (SEOK CHANG RYU)\ROHITH KARTHIKEYAN\CODE\MAZE GENERATOR TRIALS\MAZEGENV1\MAZEGENV1\DEBUG\VC140.IDB
C:\USERS\ROHITH\SYNCPLICITY FOLDERS\BIOROBOTICS (SEOK CHANG RYU)\ROHITH KARTHIKEYAN\CODE\MAZE GENERATOR TRIALS\MAZEGENV1\MAZEGENV1\DEBUG\MAZEGENV1.OBJ
