^C:\USERS\ROHITH\SYNCPLICITY FOLDERS\BIOROBOTICS (SEOK CHANG RYU)\ROHITH KARTHIKEYAN\CODE\MAZE GENERATOR TRIALS\MAZEGENV1\MAZEGENV1\DEBUG\MAZEGENV1.OBJ|C:\USERS\ROHITH\SYNCPLICITY FOLDERS\BIOROBOTICS (SEOK CHANG RYU)\ROHITH KARTHIKEYAN\CODE\MAZE GENERATOR TRIALS\MAZEGENV1\MAZEGENV1\DEBUG\STDAFX.OBJ
/OUT:"C:\USERS\ROHITH\SYNCPLICITY FOLDERS\BIOROBOTICS (SEOK CHANG RYU)\ROHITH KARTHIKEYAN\CODE\MAZE GENERATOR TRIALS\MAZEGENV1\DEBUG\MAZEGENV1.EXE" /INCREMENTAL /NOLOGO KERNEL32.LIB USER32.LIB GDI32.LIB WINSPOOL.LIB COMDLG32.LIB ADVAPI32.LIB SHELL32.LIB OLE32.LIB OLEAUT32.LIB UUID.LIB ODBC32.LIB ODBCCP32.LIB /MANIFEST /MANIFESTUAC:"level='asInvoker' uiAccess='false'" /manifest:embed /Debug /PDB:"C:\USERS\ROHITH\SYNCPLICITY FOLDERS\BIOROBOTICS (SEOK CHANG RYU)\ROHITH KARTHIKEYAN\CODE\MAZE GENERATOR TRIALS\MAZEGENV1\DEBUG\MAZEGENV1.PDB" /SUBSYSTEM:CONSOLE /TLBID:1 /DYNAMICBASE /NXCOMPAT /IMPLIB:"C:\USERS\ROHITH\SYNCPLICITY FOLDERS\BIOROBOTICS (SEOK CHANG RYU)\ROHITH KARTHIKEYAN\CODE\MAZE GENERATOR TRIALS\MAZEGENV1\DEBUG\MAZEGENV1.LIB" /MACHINE:X86 DEBUG\MAZEGENV1.OBJDEBUG\STDAFX.OBJ
^C:\USERS\ROHITHKARTHIKEYAN\SYNCPLICITY FOLDERS\BIOROBOTICS (SEOK CHANG RYU)\ROHITH KARTHIKEYAN\CODE\MAZE GENERATOR TRIALS\MAZEGENV1\MAZEGENV1\DEBUG\MAZEGENV1.OBJ|C:\USERS\ROHITHKARTHIKEYAN\SYNCPLICITY FOLDERS\BIOROBOTICS (SEOK CHANG RYU)\ROHITH KARTHIKEYAN\CODE\MAZE GENERATOR TRIALS\MAZEGENV1\MAZEGENV1\DEBUG\STDAFX.OBJ
/OUT:"C:\USERS\ROHITHKARTHIKEYAN\SYNCPLICITY FOLDERS\BIOROBOTICS (SEOK CHANG RYU)\ROHITH KARTHIKEYAN\CODE\MAZE GENERATOR TRIALS\MAZEGENV1\MAZEGENV1\DEBUG\MAZEGENV1.EXE" /INCREMENTAL /NOLOGO KERNEL32.LIB USER32.LIB GDI32.LIB WINSPOOL.LIB COMDLG32.LIB ADVAPI32.LIB SHELL32.LIB OLE32.LIB OLEAUT32.LIB UUID.LIB ODBC32.LIB ODBCCP32.LIB /MANIFEST /MANIFESTUAC:"level='asInvoker' uiAccess='false'" /manifest:embed /DEBUG /PDB:"C:\USERS\ROHITHKARTHIKEYAN\SYNCPLICITY FOLDERS\BIOROBOTICS (SEOK CHANG RYU)\ROHITH KARTHIKEYAN\CODE\MAZE GENERATOR TRIALS\MAZEGENV1\MAZEGENV1\DEBUG\MAZEGENV1.PDB" /SUBSYSTEM:CONSOLE /TLBID:1 /DYNAMICBASE /NXCOMPAT /IMPLIB:"C:\USERS\ROHITHKARTHIKEYAN\SYNCPLICITY FOLDERS\BIOROBOTICS (SEOK CHANG RYU)\ROHITH KARTHIKEYAN\CODE\MAZE GENERATOR TRIALS\MAZEGENV1\MAZEGENV1\DEBUG\MAZEGENV1.LIB" /MACHINE:X86 DEBUG\MAZEGENV1.OBJDEBUG\STDAFX.OBJ
