^C:\USERS\ROHITHKARTHIKEYAN\SYNCPLICITY FOLDERS\BIOROBOTICS (SEOK CHANG RYU)\ROHITH KARTHIKEYAN\CODE\MAZE GENERATOR TRIALS\MAZEGENV1\MAZEGENV1\X64\DEBUG\MAZEGENV1.OBJ|C:\USERS\ROHITHKARTHIKEYAN\SYNCPLICITY FOLDERS\BIOROBOTICS (SEOK CHANG RYU)\ROHITH KARTHIKEYAN\CODE\MAZE GENERATOR TRIALS\MAZEGENV1\MAZEGENV1\X64\DEBUG\STDAFX.OBJ
C:\PROGRAM FILES (X86)\MICROSOFT VISUAL STUDIO 14.0\VC\BIN\X86_AMD64\LINK.EXE
C:\WINDOWS\GLOBALIZATION\SORTING\SORTDEFAULT.NLS
C:\PROGRAM FILES (X86)\WINDOWS KITS\8.1\LIB\WINV6.3\UM\X64\KERNEL32.LIB
C:\PROGRAM FILES (X86)\WINDOWS KITS\8.1\LIB\WINV6.3\UM\X64\USER32.LIB
C:\PROGRAM FILES (X86)\WINDOWS KITS\8.1\LIB\WINV6.3\UM\X64\GDI32.LIB
C:\PROGRAM FILES (X86)\WINDOWS KITS\8.1\LIB\WINV6.3\UM\X64\WINSPOOL.LIB
C:\PROGRAM FILES (X86)\WINDOWS KITS\8.1\LIB\WINV6.3\UM\X64\COMDLG32.LIB
C:\PROGRAM FILES (X86)\WINDOWS KITS\8.1\LIB\WINV6.3\UM\X64\ADVAPI32.LIB
C:\PROGRAM FILES (X86)\WINDOWS KITS\8.1\LIB\WINV6.3\UM\X64\SHELL32.LIB
C:\PROGRAM FILES (X86)\WINDOWS KITS\8.1\LIB\WINV6.3\UM\X64\OLE32.LIB
C:\PROGRAM FILES (X86)\WINDOWS KITS\8.1\LIB\WINV6.3\UM\X64\OLEAUT32.LIB
C:\PROGRAM FILES (X86)\WINDOWS KITS\8.1\LIB\WINV6.3\UM\X64\UUID.LIB
C:\PROGRAM FILES (X86)\WINDOWS KITS\8.1\LIB\WINV6.3\UM\X64\ODBC32.LIB
C:\PROGRAM FILES (X86)\WINDOWS KITS\8.1\LIB\WINV6.3\UM\X64\ODBCCP32.LIB
C:\USERS\ROHITHKARTHIKEYAN\SYNCPLICITY FOLDERS\BIOROBOTICS (SEOK CHANG RYU)\ROHITH KARTHIKEYAN\CODE\MAZE GENERATOR TRIALS\MAZEGENV1\MAZEGENV1\X64\DEBUG\MAZEGENV1.OBJ
C:\USERS\ROHITHKARTHIKEYAN\SYNCPLICITY FOLDERS\BIOROBOTICS (SEOK CHANG RYU)\ROHITH KARTHIKEYAN\CODE\MAZE GENERATOR TRIALS\MAZEGENV1\MAZEGENV1\X64\DEBUG\STDAFX.OBJ
C:\WINDOWS\SYSTEM32\TZRES.DLL
C:\PROGRAM FILES (X86)\MICROSOFT VISUAL STUDIO 14.0\VC\LIB\AMD64\MSVCPRTD.LIB
C:\PROGRAM FILES (X86)\MICROSOFT VISUAL STUDIO 14.0\VC\LIB\AMD64\MSVCRTD.LIB
C:\PROGRAM FILES (X86)\MICROSOFT VISUAL STUDIO 14.0\VC\LIB\AMD64\OLDNAMES.LIB
C:\PROGRAM FILES (X86)\MICROSOFT VISUAL STUDIO 14.0\VC\LIB\AMD64\VCRUNTIMED.LIB
C:\PROGRAM FILES (X86)\WINDOWS KITS\10\LIB\10.0.10240.0\UCRT\X64\UCRTD.LIB
